{
	"mp3": "./sound/zephyr/all.mp3",
	"ogg": "./sound/zephyr/all.ogg",
    "preset": {
        "silence": [
            "0:10",
            "0:11"
        ],

        "15": ["0:15", "0:16"],
        "20": ["0:20.25", "0:22"],
        "30": ["0:26", "0:27"],
        "countdown": ["0:31.5", "0:41"],
        "gameover": ["0:45.75", "0:47"],
        "os": ["0:52", "0:53"],
        "ready": ["0:57.75", "0:59"],
        "ready-start": ["1:03", "1:04"],
        "roke": ["1:08", "1:09.5"],
        "secondsremaining": ["1:14", "1:16"],
        "snapshot": ["1:20", "1:21.5"],
        "sr": ["1:26.5", "1:27.5"],
        "start": ["1:32", "1:33"]
    }
}